Boeing,747,B1340870,150,AA
Boeing,747,B4500909,150,AA
Airbus,350,A9504869,150,AA
Airbus,350,A2340982,150,AA
Boeing,787,B3058340,150,CA
Boeing,787,B2342847,150,CA
Airbus,380,A3230948,150,CA
Airbus,380,A3424804,150,CA